<?xml version="1.0" encoding="utf-8"?>
<!-- Generator: Adobe Illustrator 18.0.0, SVG Export Plug-In . SVG Version: 6.00 Build 0)  -->
<!DOCTYPE svg PUBLIC "-//W3C//DTD SVG 1.0//EN" "http://www.w3.org/TR/2001/REC-SVG-20010904/DTD/svg10.dtd">
<svg version="1.0" id="Layer_1" xmlns="http://www.w3.org/2000/svg" xmlns:xlink="http://www.w3.org/1999/xlink" x="0px" y="0px"
	 viewBox="0 0 875.8 232" enable-background="new 0 0 875.8 232" xml:space="preserve">
<path fill="#FF9800" d="M176.3,232H0l0-132C0,44.8,44.8,0,100,0l176.3,0v132C276.3,187.2,231.6,232,176.3,232z"/>
<g>
	<path fill="#FF9800" d="M452.6,142c0,3.2-0.7,5.9-2.1,8.1c-1.4,2.2-3.4,4-5.8,5.5c-2.4,1.5-5.3,2.6-8.6,3.3
		c-3.3,0.7-6.9,1.1-10.7,1.1h-66c-3.7,0-7.1-0.4-10.3-1.3c-3.2-0.9-6-2.1-8.5-3.7c-2.4-1.6-4.3-3.5-5.7-5.7
		c-1.4-2.2-2.1-4.7-2.1-7.6V88.9c0-2.6,0.7-5.1,2.1-7.4c1.4-2.3,3.3-4.3,5.7-5.9c2.4-1.6,5.3-2.8,8.5-3.7c3.2-0.8,6.7-1.2,10.3-1.2
		h66c8.1,0,14.6,1.6,19.7,4.7c5.1,3.2,7.6,7.8,7.6,13.8V142z M422.9,89.4h-60.3v52.2h60.3V89.4z"/>
	<path fill="#FF9800" d="M582.1,74.6c0,3.8-0.9,6.7-2.7,8.7c-1.8,2-4,3.4-6.5,4.3c-2.6,0.8-5.2,1.3-7.9,1.5
		c-2.7,0.2-5.1,0.3-7.1,0.3H537v52.1c0,6.7-1.5,11.4-4.5,14.3c-3,2.9-8.6,4.3-16.8,4.3h-8.7V89.4h-45.8v-2.5
		c0-6.3,1.8-10.6,5.4-12.8c3.6-2.3,8.8-3.4,15.4-3.4h100.2V74.6z"/>
	<path fill="#FF9800" d="M682.9,160c-3.7,0-6.7-0.3-9.2-0.9c-2.4-0.6-4.6-1.3-6.4-2.1c-1.8-0.8-3.5-1.8-4.9-2.9
		c-1.4-1.1-2.9-2.1-4.3-3l-37.8-32.3v24.1c0,3.2-0.7,5.9-2.2,8.1c-1.5,2.2-3.5,4-6,5.3c-2.5,1.3-5.4,2.3-8.6,2.9
		c-3.3,0.6-6.7,0.9-10.3,0.9h-2.7V70.7h29.8v39.4l38.9-39.4h33l-40.6,41.9l54.2,47.4H682.9z"/>
</g>
<g>
	
		<rect x="179.6" y="138" transform="matrix(-0.9958 9.115034e-002 -9.115034e-002 -0.9958 388.9179 262.519)" fill="#8E9FA5" width="17.8" height="4.3"/>
	<polygon fill="#1A1B1C" points="199.8,134 176.2,136.1 177.1,146.3 200.8,144.2 199.8,134 	"/>
</g>
<g>
	
		<rect x="181.5" y="158.4" transform="matrix(-0.9958 9.115034e-002 -9.115034e-002 -0.9958 394.5099 303.1088)" fill="#8E9FA5" width="17.8" height="4.3"/>
	<polygon fill="#1A1B1C" points="201.7,154.4 178,156.5 179,166.8 202.6,164.6 201.7,154.4 	"/>
</g>
<path fill="#333333" d="M189.7,138.1l-7.1-77.8c-0.4-4-3.9-7-8-6.6h0c-4,0.4-7,3.9-6.6,8l6,65.2c-1-0.2-2-0.4-2.9-0.4l-31.2-31.2
	c-1.7-1.7-4.2-1.9-6.2-0.8l-2.9-2.9l3.6-3.6c0.5-0.5,0.5-1.2,0-1.7c-0.5-0.5-1.2-0.5-1.7,0l-8.6,8.6c-0.5,0.5-0.5,1.2,0,1.7
	c0.5,0.5,1.2,0.5,1.7,0l3.3-3.3l2.9,2.9c-1.3,2-1,4.6,0.7,6.4l24.3,24.6c-6.3,1.4-11.3,5.8-12.8,12.8h-25.2v-13
	c0-8-5.1-13.7-13.3-15.6c-1.5-4.7-5.6-7.4-11.1-7.4h-8.6V91.4c0-6.8-3.9-10.5-10.7-10.5h-1.3v23h-2v7h-0.2c-11.3,0-21.8,6.2-21.8,16
	v11.6v5.1v26.3h139c0,0,0-16.1,0-20.5c0-4.4,0.6-10.4,0.6-10.4C189.5,138.7,189.7,138.4,189.7,138.1z"/>
<path fill="#FFFFFF" d="M128.9,150.9h-5.1c-1.9,0-3.8-0.6-5.2-2l-26.3-26.1c-1.4-1.4-3.2-1.8-5.2-1.8H76.2c-0.5,0-1.3-0.5-1.3-0.7
	V41.9h-11v64.3c-1-0.3-1.5-0.3-2.3-0.3h-5.4c-4,0-7.3,3.1-7.3,7.2v28.8c0,4,3.2,7,7.3,7h20.5c4,0,7.2,3.6,7.2,7.7v6.8
	c0,4,3.4,7.5,7.5,7.5h37.6c4,0,7-3.5,7-7.5v-4.9C135.9,154.4,133,150.9,128.9,150.9z"/>
<path fill="#333333" stroke="#333333" stroke-miterlimit="10" d="M183.6,143.6c-1.9,0-3.6-1.1-4.4-2.9c-0.4-0.8-36.6-79.5-40.2-86.9
	c-2.2-4.5-8.5-4.4-9.1-4.4h-77c-2.7,0-4.9-2.3-4.9-5s2.2-6,4.9-6h77.1c0,0,0,0,0,0c0.5,0,12.9,0.7,17.8,10.8
	c3.6,7.5,38.8,84.3,40.3,87.6c1.1,2.5,0,5.3-2.4,6.4C185,143.5,184.3,143.6,183.6,143.6z"/>
<g>
	<path fill="#FFFFFF" d="M168,181.5c-9.9,0-17.9-7.9-17.9-17.7c0-9.7,8-17.7,17.9-17.7s17.9,7.9,17.9,17.7
		C185.9,173.6,177.9,181.5,168,181.5z"/>
	<path fill="#1A1B1C" d="M168,152.7c6.3,0,11.4,5,11.4,11.2c0,6.2-5.1,11.2-11.4,11.2s-11.4-5-11.4-11.2
		C156.6,157.7,161.7,152.7,168,152.7 M168,139.7c-13.5,0-24.4,10.8-24.4,24.2S154.5,188,168,188s24.4-10.8,24.4-24.2
		S181.5,139.7,168,139.7L168,139.7z"/>
</g>
<g>
	<path fill="#FFFFFF" d="M61.1,181.5c-5.8,0-10.5-4.6-10.5-10.4c0-5.7,4.7-10.4,10.5-10.4s10.5,4.6,10.5,10.4
		C71.6,176.9,66.9,181.5,61.1,181.5z"/>
	<path fill="#1A1B1C" d="M61.1,166.8c2.5,0,4.5,2,4.5,4.4s-2,4.4-4.5,4.4s-4.5-2-4.5-4.4S58.6,166.8,61.1,166.8 M61.1,154.8
		c-9.1,0-16.5,7.3-16.5,16.4s7.4,16.4,16.5,16.4c9.1,0,16.5-7.3,16.5-16.4S70.2,154.8,61.1,154.8L61.1,154.8z"/>
</g>
<line fill="#EDAD4F" stroke="#1A1B1C" stroke-width="2" stroke-linecap="round" stroke-miterlimit="10" x1="129.9" y1="161.9" x2="90.9" y2="161.9"/>
<line fill="#EDAD4F" stroke="#1A1B1C" stroke-width="2" stroke-linecap="round" stroke-miterlimit="10" x1="103.9" y1="155.9" x2="90.9" y2="155.9"/>
<line fill="#EDAD4F" stroke="#1A1B1C" stroke-width="2" stroke-linecap="round" stroke-miterlimit="10" x1="103.9" y1="149.9" x2="90.9" y2="149.9"/>
<line fill="#EDAD4F" stroke="#1A1B1C" stroke-width="2" stroke-linecap="round" stroke-miterlimit="10" x1="103.9" y1="143.9" x2="90.9" y2="143.9"/>
<path fill="#FFFFFF" d="M260.3,169.1l-51.1,4.9c-1.1,0.1-2.1-0.7-2.2-1.8l-4.9-51.1c-0.1-1.1,0.7-2.1,1.8-2.2L255,114
	c1.1-0.1,2.1,0.7,2.2,1.8l4.9,51.1C262.1,168,261.3,169,260.3,169.1z"/>
<path fill="#333333" d="M263.9,167.1l-55.4,5.1l-5.4-58.8c-0.3-2.8-2.8-4.9-5.6-4.6c-2.8,0.3-4.9,2.8-4.6,5.6l5.7,61.8l0.1,0.8
	l65.6-6c1.1-0.1,1.9-1,1.8-2.1C265.9,167.8,265,167,263.9,167.1z"/>
<line opacity="0.5" fill="none" stroke="#1A1B1C" stroke-width="6" stroke-linecap="round" stroke-miterlimit="10" x1="43.9" y1="187.9" x2="192.9" y2="187.9"/>
<g>
	<path fill="#FFFFFF" d="M787.1,88.8c0,2.4-0.6,4.4-1.7,6c-1.1,1.6-2.7,2.8-4.7,3.7c-2,0.9-4.2,1.5-6.6,1.9
		c-2.4,0.4-4.9,0.6-7.4,0.6h-43.5c-5.6,0-10-1.1-13-3.4c-3-2.3-4.5-4.7-4.5-7.3v-1.8h61.2V77.2h-35.1c-3.8,0-6.8-0.4-8.8-1.3
		c-2.1-0.9-3.7-1.9-4.8-3.1c-1.1-1.2-1.8-2.4-2-3.7c-0.2-1.3-0.4-2.2-0.4-3v-1.8h51.1V53h-46.5c-5.4,0-9.1-1-11.2-3.1
		c-2.1-2.1-3.2-4.6-3.5-7.6v-1.9h61.1c3.8,0,7,0.3,9.6,1c2.6,0.6,4.7,1.5,6.3,2.7c1.6,1.1,2.8,2.4,3.5,3.7c0.7,1.3,1,2.6,1,3.9
		c0,1-0.2,2.3-0.6,3.7c-0.4,1.4-1.1,2.8-2.2,4.2c-1.1,1.4-2.6,2.5-4.5,3.5c-2,1-4.5,1.5-7.5,1.5v0.6c1.8,0.2,3.5,0.5,5,0.8
		c1.6,0.3,3,0.8,4.2,1.6c1.6,1,2.9,2.3,4,3.7c1.1,1.4,1.6,3.7,1.6,6.8V88.8z"/>
	<path fill="#FFFFFF" d="M875.8,88.8c0,2.4-0.6,4.4-1.7,6c-1.1,1.6-2.7,2.8-4.7,3.7c-2,0.9-4.2,1.5-6.6,1.9
		c-2.4,0.4-4.9,0.6-7.4,0.6H812c-5.6,0-10-1.1-13-3.4c-3-2.3-4.5-4.7-4.5-7.3v-1.8h61.2V77.2h-35.1c-3.8,0-6.8-0.4-8.8-1.3
		c-2.1-0.9-3.7-1.9-4.8-3.1c-1.1-1.2-1.8-2.4-2-3.7c-0.2-1.3-0.4-2.2-0.4-3v-1.8h51.1V53H809c-5.4,0-9.1-1-11.2-3.1
		c-2.1-2.1-3.2-4.6-3.5-7.6v-1.9h61.1c3.8,0,7,0.3,9.6,1c2.6,0.6,4.7,1.5,6.3,2.7c1.6,1.1,2.8,2.4,3.5,3.7c0.7,1.3,1,2.6,1,3.9
		c0,1-0.2,2.3-0.6,3.7c-0.4,1.4-1.1,2.8-2.2,4.2c-1.1,1.4-2.6,2.5-4.5,3.5c-2,1-4.5,1.5-7.5,1.5v0.6c1.8,0.2,3.5,0.5,5,0.8
		c1.6,0.3,3,0.8,4.2,1.6c1.6,1,2.9,2.3,4,3.7c1.1,1.4,1.6,3.7,1.6,6.8V88.8z"/>
</g>
</svg>
